…
``` r
quadgrams_separated <- quadgram_cover_90 %>%
  separate(quadgram, c("word1", "word2", "word3", "word4"), sep = " ")
quadgrams_separated
```

    ## # A tibble: 7,339,529 x 7
    ##    word1 word2 word3 word4     n   proportion     coverage
    ##  * <chr> <chr> <chr> <chr> <int>        <dbl>        <dbl>
    ##  1   the   end    of   the   806 8.926682e-05 8.926682e-05
    ##  2    at   the   end    of   656 7.265389e-05 1.619207e-04
    ##  3   the  rest    of   the   651 7.210012e-05 2.340208e-04
    ##  4   for   the first  time   613 6.789151e-05 3.019123e-04
    ##  5    at   the  same  time   506 5.604095e-05 3.579533e-04
    ##  6    is going    to    be   482 5.338289e-05 4.113362e-04
    ##  7    is   one    of   the   446 4.939578e-05 4.607320e-04
    ##  8   one    of   the  most   435 4.817750e-05 5.089095e-04
    ##  9  when    it comes    to   419 4.640545e-05 5.553149e-04
    ## 10 going    to    be     a   376 4.164308e-05 5.969580e-04
    ## # ... with 7,339,519 more rows
…
