…
``` r
disty <- data_frame(ngram = c(rep("bigrams",  nrow(bigram_cover)),
                             rep("trigrams",  nrow(trigram_cover)),
                             rep("quadgrams", nrow(quadgram_cover)),
                             rep("quintgrams", nrow(quintgram_cover)),
                             rep("sextgrams",  nrow(sextgram_cover))),
                    number = c(bigram_cover$n,  trigram_cover$n, 
                              quadgram_cover$n, quintgram_cover$n,
                              sextgram_cover$n))
disty
```

    ## # A tibble: 150,271 x 2
    ##      ngram number
    ##      <chr>  <int>
    ##  1 bigrams  44296
    ##  2 bigrams  41480
    ##  3 bigrams  25015
    ##  4 bigrams  20646
    ##  5 bigrams  19953
    ##  6 bigrams  16338
    ##  7 bigrams  16290
    ##  8 bigrams  14462
    ##  9 bigrams  14357
    ## 10 bigrams  12060
    ## # ... with 150,261 more rows
…
    ## Saving 7 x 5 in image

Separate words
--------------

``` r
bi_words <- bigram_cover %>%
  separate(bigram, c("word1", "word2"), sep = " ")
bi_words
```

    ## # A tibble: 87,239 x 3
    ##    word1 word2     n
    ##  * <chr> <chr> <int>
    ##  1    of   the 44296
    ##  2    in   the 41480
    ##  3    to   the 25015
    ##  4   for   the 20646
    ##  5    on   the 19953
    ##  6     c     e 16338
    ##  7    to    be 16290
    ##  8    at   the 14462
    ##  9   and   the 14357
    ## 10    in     a 12060
    ## # ... with 87,229 more rows

``` r
tri_words <- trigram_cover %>%
  separate(trigram, c("word1", "word2", "word3"), sep = " ")
tri_words
```

    ## # A tibble: 51,539 x 4
    ##     word1 word2 word3     n
    ##  *  <chr> <chr> <chr> <int>
    ##  1    one    of   the  3543
    ##  2      a   lot    of  2929
    ##  3 thanks   for   the  2501
    ##  4     to    be     a  1888
    ##  5  going    to    be  1825
    ##  6    the    of   the  1814
    ##  7      i  want    to  1629
    ##  8    the   end    of  1522
    ##  9    out    of   the  1520
    ## 10     it   was     a  1511
    ## # ... with 51,529 more rows

``` r
quad_words <- quadgram_cover %>%
  separate(quadgram, c("word1", "word2", "word3", "word4"), sep = " ")
quad_words
```

    ## # A tibble: 9,941 x 5
    ##    word1 word2 word3 word4     n
    ##  * <chr> <chr> <chr> <chr> <int>
    ##  1   the   end    of   the   806
    ##  2    at   the   end    of   656
    ##  3   the  rest    of   the   651
    ##  4   for   the first  time   613
    ##  5    at   the  same  time   506
    ##  6    is going    to    be   482
    ##  7    is   one    of   the   446
    ##  8   one    of   the  most   435
    ##  9  when    it comes    to   419
    ## 10 going    to    be     a   376
    ## # ... with 9,931 more rows

``` r
quint_words <- quintgram_cover %>%
  separate(quintgram, c("word1", "word2", "word3", "word4", "word5"), sep = " ")
quint_words
```

    ## # A tibble: 1,317 x 6
    ##    word1 word2 word3 word4 word5     n
    ##  * <chr> <chr> <chr> <chr> <chr> <int>
    ##  1    at   the   end    of   the   371
    ##  2   for   the first  time    in   145
    ##  3   the   end    of   the   day   128
    ##  4   for   the  rest    of   the   124
    ##  5    by   the   end    of   the   122
    ##  6 thank   you    so  much   for   108
    ##  7 there   are     a   lot    of   108
    ##  8   its going    to    be     a    98
    ##  9   let    me  know    if   you    94
    ## 10    is going    to    be     a    93
    ## # ... with 1,307 more rows

``` r
sext_words <- sextgram_cover %>%
  separate(sextgram, c("word1", "word2", "word3", "word4", "word5", "word6"), sep = " ")
sext_words
```

    ## # A tibble: 235 x 7
    ##    word1    word2    word3 word4 word5 word6     n
    ##  * <chr>    <chr>    <chr> <chr> <chr> <chr> <int>
    ##  1    at      the      end    of   the   day   107
    ##  2     c        c        c     c     c     c    63
    ##  3    on      the    other  side    of   the    57
    ##  4    me       me       me    me    me    me    40
    ##  5  this       is    going    to    be     a    36
    ##  6  cake     cake     cake  cake  cake  cake    34
    ##  7     i     just finished     a    mi   run    34
    ##  8  just finished        a    mi   run  with    33
    ##  9 thank      you       so  much   for   the    28
    ## 10   let       me     know  what   you think    27
    ## # ... with 225 more rows
…
